^C:\USERS\USER\DESKTOP\MATERIAŁY SZKOLNE\PROGRAMOWANIE\PROJEKTY_C++\CHESS\CHESS\MAIN.CPP
C:\USERS\USER\DESKTOP\MATERIAłY SZKOLNE\PROGRAMOWANIE\PROJEKTY_C++\CHESS\CHESS\DEBUG\VC141.PDB
C:\USERS\USER\DESKTOP\MATERIAłY SZKOLNE\PROGRAMOWANIE\PROJEKTY_C++\CHESS\CHESS\DEBUG\VC141.IDB
C:\USERS\USER\DESKTOP\MATERIAłY SZKOLNE\PROGRAMOWANIE\PROJEKTY_C++\CHESS\CHESS\DEBUG\MAIN.OBJ
^C:\USERS\USER\DESKTOP\MATERIAŁY SZKOLNE\PROGRAMOWANIE\PROJEKTY_C++\CHESS\CHESS\FIELD.CPP|C:\USERS\USER\DESKTOP\MATERIAŁY SZKOLNE\PROGRAMOWANIE\PROJEKTY_C++\CHESS\CHESS\FIELD_RECTANGLE.CPP
C:\USERS\USER\DESKTOP\MATERIAłY SZKOLNE\PROGRAMOWANIE\PROJEKTY_C++\CHESS\CHESS\DEBUG\VC141.PDB
C:\USERS\USER\DESKTOP\MATERIAłY SZKOLNE\PROGRAMOWANIE\PROJEKTY_C++\CHESS\CHESS\DEBUG\VC141.IDB
C:\USERS\USER\DESKTOP\MATERIAłY SZKOLNE\PROGRAMOWANIE\PROJEKTY_C++\CHESS\CHESS\DEBUG\FIELD.OBJ
C:\USERS\USER\DESKTOP\MATERIAłY SZKOLNE\PROGRAMOWANIE\PROJEKTY_C++\CHESS\CHESS\DEBUG\FIELD_RECTANGLE.OBJ
^C:\USERS\USER\DESKTOP\MATERIAŁY SZKOLNE\PROGRAMOWANIE\PROJEKTY_C++\CHESS\CHESS\FIELD.CPP
C:\USERS\USER\DESKTOP\MATERIAŁY SZKOLNE\PROGRAMOWANIE\PROJEKTY_C++\CHESS\CHESS\DEBUG\VC141.PDB
C:\USERS\USER\DESKTOP\MATERIAłY SZKOLNE\PROGRAMOWANIE\PROJEKTY_C++\CHESS\CHESS\DEBUG\VC141.IDB
C:\USERS\USER\DESKTOP\MATERIAłY SZKOLNE\PROGRAMOWANIE\PROJEKTY_C++\CHESS\CHESS\DEBUG\FIELD.OBJ
^C:\USERS\USER\DESKTOP\MATERIAŁY SZKOLNE\PROGRAMOWANIE\PROJEKTY_C++\CHESS\CHESS\FIELD_RECTANGLE.CPP
C:\USERS\USER\DESKTOP\MATERIAŁY SZKOLNE\PROGRAMOWANIE\PROJEKTY_C++\CHESS\CHESS\DEBUG\VC141.PDB
^C:\USERS\USER\DESKTOP\MATERIAŁY SZKOLNE\PROGRAMOWANIE\PROJEKTY_C++\CHESS\CHESS\CHESS_FIELD.CPP|C:\USERS\USER\DESKTOP\MATERIAŁY SZKOLNE\PROGRAMOWANIE\PROJEKTY_C++\CHESS\CHESS\FIELD.CPP
C:\USERS\USER\DESKTOP\MATERIAłY SZKOLNE\PROGRAMOWANIE\PROJEKTY_C++\CHESS\CHESS\DEBUG\VC141.PDB
C:\USERS\USER\DESKTOP\MATERIAłY SZKOLNE\PROGRAMOWANIE\PROJEKTY_C++\CHESS\CHESS\DEBUG\VC141.IDB
C:\USERS\USER\DESKTOP\MATERIAłY SZKOLNE\PROGRAMOWANIE\PROJEKTY_C++\CHESS\CHESS\DEBUG\FIELD.OBJ
^C:\USERS\USER\DESKTOP\MATERIAŁY SZKOLNE\PROGRAMOWANIE\PROJEKTY_C++\CHESS\CHESS\CHESS_FIELD.CPP
C:\USERS\USER\DESKTOP\MATERIAŁY SZKOLNE\PROGRAMOWANIE\PROJEKTY_C++\CHESS\CHESS\DEBUG\VC141.PDB
C:\USERS\USER\DESKTOP\MATERIAłY SZKOLNE\PROGRAMOWANIE\PROJEKTY_C++\CHESS\CHESS\DEBUG\VC141.IDB
C:\USERS\USER\DESKTOP\MATERIAłY SZKOLNE\PROGRAMOWANIE\PROJEKTY_C++\CHESS\CHESS\DEBUG\CHESS_FIELD.OBJ
^C:\USERS\USER\DESKTOP\MATERIAŁY SZKOLNE\PROGRAMOWANIE\PROJEKTY_C++\CHESS\CHESS\CHESS_FIELD.CPP|C:\USERS\USER\DESKTOP\MATERIAŁY SZKOLNE\PROGRAMOWANIE\PROJEKTY_C++\CHESS\CHESS\FIELD.CPP|C:\USERS\USER\DESKTOP\MATERIAŁY SZKOLNE\PROGRAMOWANIE\PROJEKTY_C++\CHESS\CHESS\MAIN.CPP
C:\USERS\USER\DESKTOP\MATERIAłY SZKOLNE\PROGRAMOWANIE\PROJEKTY_C++\CHESS\CHESS\DEBUG\VC141.PDB
C:\USERS\USER\DESKTOP\MATERIAłY SZKOLNE\PROGRAMOWANIE\PROJEKTY_C++\CHESS\CHESS\DEBUG\VC141.IDB
C:\USERS\USER\DESKTOP\MATERIAłY SZKOLNE\PROGRAMOWANIE\PROJEKTY_C++\CHESS\CHESS\DEBUG\FIELD.OBJ
C:\USERS\USER\DESKTOP\MATERIAłY SZKOLNE\PROGRAMOWANIE\PROJEKTY_C++\CHESS\CHESS\DEBUG\MAIN.OBJ
C:\USERS\USER\DESKTOP\MATERIAłY SZKOLNE\PROGRAMOWANIE\PROJEKTY_C++\CHESS\CHESS\DEBUG\CHESS_FIELD.OBJ
^C:\USERS\USER\DESKTOP\MATERIAŁY SZKOLNE\PROGRAMOWANIE\PROJEKTY_C++\CHESS\CHESS\CHESS_FIELD.CPP|C:\USERS\USER\DESKTOP\MATERIAŁY SZKOLNE\PROGRAMOWANIE\PROJEKTY_C++\CHESS\CHESS\MAIN.CPP
C:\USERS\USER\DESKTOP\MATERIAłY SZKOLNE\PROGRAMOWANIE\PROJEKTY_C++\CHESS\CHESS\DEBUG\VC141.PDB
C:\USERS\USER\DESKTOP\MATERIAłY SZKOLNE\PROGRAMOWANIE\PROJEKTY_C++\CHESS\CHESS\DEBUG\VC141.IDB
C:\USERS\USER\DESKTOP\MATERIAłY SZKOLNE\PROGRAMOWANIE\PROJEKTY_C++\CHESS\CHESS\DEBUG\MAIN.OBJ
^C:\USERS\USER\DESKTOP\MATERIAŁY SZKOLNE\PROGRAMOWANIE\PROJEKTY_C++\CHESS\CHESS\FIELD.CPP|C:\USERS\USER\DESKTOP\MATERIAŁY SZKOLNE\PROGRAMOWANIE\PROJEKTY_C++\CHESS\CHESS\MAIN.CPP
C:\USERS\USER\DESKTOP\MATERIAłY SZKOLNE\PROGRAMOWANIE\PROJEKTY_C++\CHESS\CHESS\DEBUG\VC141.PDB
C:\USERS\USER\DESKTOP\MATERIAłY SZKOLNE\PROGRAMOWANIE\PROJEKTY_C++\CHESS\CHESS\DEBUG\VC141.IDB
C:\USERS\USER\DESKTOP\MATERIAłY SZKOLNE\PROGRAMOWANIE\PROJEKTY_C++\CHESS\CHESS\DEBUG\FIELD.OBJ
C:\USERS\USER\DESKTOP\MATERIAłY SZKOLNE\PROGRAMOWANIE\PROJEKTY_C++\CHESS\CHESS\DEBUG\MAIN.OBJ
^C:\USERS\USER\DESKTOP\MATERIAŁY SZKOLNE\PROGRAMOWANIE\PROJEKTY_C++\CHESS\CHESS\SCENE.CPP
C:\USERS\USER\DESKTOP\MATERIAłY SZKOLNE\PROGRAMOWANIE\PROJEKTY_C++\CHESS\CHESS\DEBUG\VC141.PDB
C:\USERS\USER\DESKTOP\MATERIAłY SZKOLNE\PROGRAMOWANIE\PROJEKTY_C++\CHESS\CHESS\DEBUG\VC141.IDB
C:\USERS\USER\DESKTOP\MATERIAłY SZKOLNE\PROGRAMOWANIE\PROJEKTY_C++\CHESS\CHESS\DEBUG\SCENE.OBJ
^C:\USERS\USER\DESKTOP\MATERIAŁY SZKOLNE\PROGRAMOWANIE\PROJEKTY_C++\CHESS\CHESS\CHESS_FIELD.CPP|C:\USERS\USER\DESKTOP\MATERIAŁY SZKOLNE\PROGRAMOWANIE\PROJEKTY_C++\CHESS\CHESS\FIELD.CPP|C:\USERS\USER\DESKTOP\MATERIAŁY SZKOLNE\PROGRAMOWANIE\PROJEKTY_C++\CHESS\CHESS\MAIN.CPP|C:\USERS\USER\DESKTOP\MATERIAŁY SZKOLNE\PROGRAMOWANIE\PROJEKTY_C++\CHESS\CHESS\SCENE.CPP
C:\USERS\USER\DESKTOP\MATERIAłY SZKOLNE\PROGRAMOWANIE\PROJEKTY_C++\CHESS\CHESS\DEBUG\VC141.PDB
C:\USERS\USER\DESKTOP\MATERIAłY SZKOLNE\PROGRAMOWANIE\PROJEKTY_C++\CHESS\CHESS\DEBUG\VC141.IDB
C:\USERS\USER\DESKTOP\MATERIAłY SZKOLNE\PROGRAMOWANIE\PROJEKTY_C++\CHESS\CHESS\DEBUG\FIELD.OBJ
C:\USERS\USER\DESKTOP\MATERIAłY SZKOLNE\PROGRAMOWANIE\PROJEKTY_C++\CHESS\CHESS\DEBUG\CHESS_FIELD.OBJ
C:\USERS\USER\DESKTOP\MATERIAłY SZKOLNE\PROGRAMOWANIE\PROJEKTY_C++\CHESS\CHESS\DEBUG\SCENE.OBJ
C:\USERS\USER\DESKTOP\MATERIAłY SZKOLNE\PROGRAMOWANIE\PROJEKTY_C++\CHESS\CHESS\DEBUG\MAIN.OBJ
^C:\USERS\USER\DESKTOP\MATERIAŁY SZKOLNE\PROGRAMOWANIE\PROJEKTY_C++\CHESS\CHESS\CHESS_FIELD.CPP|C:\USERS\USER\DESKTOP\MATERIAŁY SZKOLNE\PROGRAMOWANIE\PROJEKTY_C++\CHESS\CHESS\MAIN.CPP|C:\USERS\USER\DESKTOP\MATERIAŁY SZKOLNE\PROGRAMOWANIE\PROJEKTY_C++\CHESS\CHESS\SCENE.CPP
C:\USERS\USER\DESKTOP\MATERIAłY SZKOLNE\PROGRAMOWANIE\PROJEKTY_C++\CHESS\CHESS\DEBUG\VC141.PDB
C:\USERS\USER\DESKTOP\MATERIAłY SZKOLNE\PROGRAMOWANIE\PROJEKTY_C++\CHESS\CHESS\DEBUG\VC141.IDB
C:\USERS\USER\DESKTOP\MATERIAłY SZKOLNE\PROGRAMOWANIE\PROJEKTY_C++\CHESS\CHESS\DEBUG\CHESS_FIELD.OBJ
C:\USERS\USER\DESKTOP\MATERIAłY SZKOLNE\PROGRAMOWANIE\PROJEKTY_C++\CHESS\CHESS\DEBUG\MAIN.OBJ
^C:\USERS\USER\DESKTOP\MATERIAŁY SZKOLNE\PROGRAMOWANIE\PROJEKTY_C++\CHESS\CHESS\MAIN.CPP|C:\USERS\USER\DESKTOP\MATERIAŁY SZKOLNE\PROGRAMOWANIE\PROJEKTY_C++\CHESS\CHESS\SCENE.CPP
C:\USERS\USER\DESKTOP\MATERIAłY SZKOLNE\PROGRAMOWANIE\PROJEKTY_C++\CHESS\CHESS\DEBUG\VC141.PDB
C:\USERS\USER\DESKTOP\MATERIAłY SZKOLNE\PROGRAMOWANIE\PROJEKTY_C++\CHESS\CHESS\DEBUG\VC141.IDB
C:\USERS\USER\DESKTOP\MATERIAłY SZKOLNE\PROGRAMOWANIE\PROJEKTY_C++\CHESS\CHESS\DEBUG\MAIN.OBJ
C:\USERS\USER\DESKTOP\MATERIAłY SZKOLNE\PROGRAMOWANIE\PROJEKTY_C++\CHESS\CHESS\DEBUG\SCENE.OBJ
^C:\USERS\USER\DESKTOP\MATERIAŁY SZKOLNE\PROGRAMOWANIE\PROJEKTY_C++\CHESS\CHESS\FIGURE.CPP|C:\USERS\USER\DESKTOP\MATERIAŁY SZKOLNE\PROGRAMOWANIE\PROJEKTY_C++\CHESS\CHESS\MAIN.CPP|C:\USERS\USER\DESKTOP\MATERIAŁY SZKOLNE\PROGRAMOWANIE\PROJEKTY_C++\CHESS\CHESS\SCENE.CPP
C:\USERS\USER\DESKTOP\MATERIAłY SZKOLNE\PROGRAMOWANIE\PROJEKTY_C++\CHESS\CHESS\DEBUG\VC141.PDB
C:\USERS\USER\DESKTOP\MATERIAłY SZKOLNE\PROGRAMOWANIE\PROJEKTY_C++\CHESS\CHESS\DEBUG\VC141.IDB
C:\USERS\USER\DESKTOP\MATERIAłY SZKOLNE\PROGRAMOWANIE\PROJEKTY_C++\CHESS\CHESS\DEBUG\FIGURE.OBJ
C:\USERS\USER\DESKTOP\MATERIAłY SZKOLNE\PROGRAMOWANIE\PROJEKTY_C++\CHESS\CHESS\DEBUG\MAIN.OBJ
C:\USERS\USER\DESKTOP\MATERIAłY SZKOLNE\PROGRAMOWANIE\PROJEKTY_C++\CHESS\CHESS\DEBUG\SCENE.OBJ
^C:\USERS\USER\DESKTOP\MATERIAŁY SZKOLNE\PROGRAMOWANIE\PROJEKTY_C++\CHESS\CHESS\FIGURE.CPP
C:\USERS\USER\DESKTOP\MATERIAŁY SZKOLNE\PROGRAMOWANIE\PROJEKTY_C++\CHESS\CHESS\DEBUG\VC141.PDB
C:\USERS\USER\DESKTOP\MATERIAłY SZKOLNE\PROGRAMOWANIE\PROJEKTY_C++\CHESS\CHESS\DEBUG\VC141.IDB
C:\USERS\USER\DESKTOP\MATERIAłY SZKOLNE\PROGRAMOWANIE\PROJEKTY_C++\CHESS\CHESS\DEBUG\FIGURE.OBJ
^C:\USERS\USER\DESKTOP\MATERIAŁY SZKOLNE\PROGRAMOWANIE\PROJEKTY_C++\CHESS\CHESS\FIGURE.CPP|C:\USERS\USER\DESKTOP\MATERIAŁY SZKOLNE\PROGRAMOWANIE\PROJEKTY_C++\CHESS\CHESS\SCENE.CPP
C:\USERS\USER\DESKTOP\MATERIAłY SZKOLNE\PROGRAMOWANIE\PROJEKTY_C++\CHESS\CHESS\DEBUG\VC141.PDB
C:\USERS\USER\DESKTOP\MATERIAłY SZKOLNE\PROGRAMOWANIE\PROJEKTY_C++\CHESS\CHESS\DEBUG\VC141.IDB
C:\USERS\USER\DESKTOP\MATERIAłY SZKOLNE\PROGRAMOWANIE\PROJEKTY_C++\CHESS\CHESS\DEBUG\FIGURE.OBJ
^C:\USERS\USER\DESKTOP\MATERIAŁY SZKOLNE\PROGRAMOWANIE\PROJEKTY_C++\CHESS\CHESS\CHESS_FIELD.CPP|C:\USERS\USER\DESKTOP\MATERIAŁY SZKOLNE\PROGRAMOWANIE\PROJEKTY_C++\CHESS\CHESS\FIELD.CPP|C:\USERS\USER\DESKTOP\MATERIAŁY SZKOLNE\PROGRAMOWANIE\PROJEKTY_C++\CHESS\CHESS\FIGURE.CPP|C:\USERS\USER\DESKTOP\MATERIAŁY SZKOLNE\PROGRAMOWANIE\PROJEKTY_C++\CHESS\CHESS\MAIN.CPP|C:\USERS\USER\DESKTOP\MATERIAŁY SZKOLNE\PROGRAMOWANIE\PROJEKTY_C++\CHESS\CHESS\SCENE.CPP
C:\USERS\USER\DESKTOP\MATERIAłY SZKOLNE\PROGRAMOWANIE\PROJEKTY_C++\CHESS\CHESS\DEBUG\VC141.PDB
C:\USERS\USER\DESKTOP\MATERIAłY SZKOLNE\PROGRAMOWANIE\PROJEKTY_C++\CHESS\CHESS\DEBUG\VC141.IDB
C:\USERS\USER\DESKTOP\MATERIAłY SZKOLNE\PROGRAMOWANIE\PROJEKTY_C++\CHESS\CHESS\DEBUG\FIELD.OBJ
C:\USERS\USER\DESKTOP\MATERIAłY SZKOLNE\PROGRAMOWANIE\PROJEKTY_C++\CHESS\CHESS\DEBUG\FIGURE.OBJ
C:\USERS\USER\DESKTOP\MATERIAłY SZKOLNE\PROGRAMOWANIE\PROJEKTY_C++\CHESS\CHESS\DEBUG\MAIN.OBJ
C:\USERS\USER\DESKTOP\MATERIAłY SZKOLNE\PROGRAMOWANIE\PROJEKTY_C++\CHESS\CHESS\DEBUG\CHESS_FIELD.OBJ
^C:\USERS\USER\DESKTOP\MATERIAŁY SZKOLNE\PROGRAMOWANIE\PROJEKTY_C++\CHESS\CHESS\CHESS_FIELD.CPP|C:\USERS\USER\DESKTOP\MATERIAŁY SZKOLNE\PROGRAMOWANIE\PROJEKTY_C++\CHESS\CHESS\FIELD.CPP|C:\USERS\USER\DESKTOP\MATERIAŁY SZKOLNE\PROGRAMOWANIE\PROJEKTY_C++\CHESS\CHESS\FIGURE.CPP|C:\USERS\USER\DESKTOP\MATERIAŁY SZKOLNE\PROGRAMOWANIE\PROJEKTY_C++\CHESS\CHESS\SCENE.CPP
C:\USERS\USER\DESKTOP\MATERIAłY SZKOLNE\PROGRAMOWANIE\PROJEKTY_C++\CHESS\CHESS\DEBUG\VC141.PDB
C:\USERS\USER\DESKTOP\MATERIAłY SZKOLNE\PROGRAMOWANIE\PROJEKTY_C++\CHESS\CHESS\DEBUG\VC141.IDB
C:\USERS\USER\DESKTOP\MATERIAłY SZKOLNE\PROGRAMOWANIE\PROJEKTY_C++\CHESS\CHESS\DEBUG\CHESS_FIELD.OBJ
C:\USERS\USER\DESKTOP\MATERIAłY SZKOLNE\PROGRAMOWANIE\PROJEKTY_C++\CHESS\CHESS\DEBUG\FIELD.OBJ
C:\USERS\USER\DESKTOP\MATERIAłY SZKOLNE\PROGRAMOWANIE\PROJEKTY_C++\CHESS\CHESS\DEBUG\FIGURE.OBJ
C:\USERS\USER\DESKTOP\MATERIAłY SZKOLNE\PROGRAMOWANIE\PROJEKTY_C++\CHESS\CHESS\DEBUG\SCENE.OBJ
^C:\USERS\USER\DESKTOP\MATERIAŁY SZKOLNE\PROGRAMOWANIE\PROJEKTY_C++\CHESS\CHESS\MENU.CPP|C:\USERS\USER\DESKTOP\MATERIAŁY SZKOLNE\PROGRAMOWANIE\PROJEKTY_C++\CHESS\CHESS\SCENE.CPP
C:\USERS\USER\DESKTOP\MATERIAłY SZKOLNE\PROGRAMOWANIE\PROJEKTY_C++\CHESS\CHESS\DEBUG\VC141.PDB
C:\USERS\USER\DESKTOP\MATERIAłY SZKOLNE\PROGRAMOWANIE\PROJEKTY_C++\CHESS\CHESS\DEBUG\VC141.IDB
C:\USERS\USER\DESKTOP\MATERIAłY SZKOLNE\PROGRAMOWANIE\PROJEKTY_C++\CHESS\CHESS\DEBUG\MENU.OBJ
C:\USERS\USER\DESKTOP\MATERIAłY SZKOLNE\PROGRAMOWANIE\PROJEKTY_C++\CHESS\CHESS\DEBUG\SCENE.OBJ
^C:\USERS\USER\DESKTOP\MATERIAŁY SZKOLNE\PROGRAMOWANIE\PROJEKTY_C++\CHESS\CHESS\MENU.CPP
C:\USERS\USER\DESKTOP\MATERIAŁY SZKOLNE\PROGRAMOWANIE\PROJEKTY_C++\CHESS\CHESS\DEBUG\VC141.PDB
C:\USERS\USER\DESKTOP\MATERIAłY SZKOLNE\PROGRAMOWANIE\PROJEKTY_C++\CHESS\CHESS\DEBUG\VC141.IDB
C:\USERS\USER\DESKTOP\MATERIAłY SZKOLNE\PROGRAMOWANIE\PROJEKTY_C++\CHESS\CHESS\DEBUG\MENU.OBJ
^C:\USERS\USER\DESKTOP\MATERIAŁY SZKOLNE\PROGRAMOWANIE\PROJEKTY_C++\CHESS\CHESS\BUTTON_FIELD.CPP|C:\USERS\USER\DESKTOP\MATERIAŁY SZKOLNE\PROGRAMOWANIE\PROJEKTY_C++\CHESS\CHESS\MAIN.CPP|C:\USERS\USER\DESKTOP\MATERIAŁY SZKOLNE\PROGRAMOWANIE\PROJEKTY_C++\CHESS\CHESS\MENU.CPP
C:\USERS\USER\DESKTOP\MATERIAłY SZKOLNE\PROGRAMOWANIE\PROJEKTY_C++\CHESS\CHESS\DEBUG\VC141.PDB
C:\USERS\USER\DESKTOP\MATERIAłY SZKOLNE\PROGRAMOWANIE\PROJEKTY_C++\CHESS\CHESS\DEBUG\VC141.IDB
C:\USERS\USER\DESKTOP\MATERIAłY SZKOLNE\PROGRAMOWANIE\PROJEKTY_C++\CHESS\CHESS\DEBUG\BUTTON_FIELD.OBJ
C:\USERS\USER\DESKTOP\MATERIAłY SZKOLNE\PROGRAMOWANIE\PROJEKTY_C++\CHESS\CHESS\DEBUG\MAIN.OBJ
^C:\USERS\USER\DESKTOP\MATERIAŁY SZKOLNE\PROGRAMOWANIE\PROJEKTY_C++\CHESS\CHESS\BUTTON_FIELD.CPP
C:\USERS\USER\DESKTOP\MATERIAŁY SZKOLNE\PROGRAMOWANIE\PROJEKTY_C++\CHESS\CHESS\DEBUG\VC141.PDB
